Furniture for Quantitative Scientists • furniture
…
In addition, the rowmeans() and rowsums() functions offer a simplified use of rowMeans() and rowSums(), particularly when using the tidyverse’s mutate().

nhanes_2010 %>%
  select(vig_active, mod_active) %>%
  mutate(avg_active = rowmeans(vig_active, mod_active, na.rm=TRUE)) %>%
  mutate(sum_active = rowsums(vig_active, mod_active, na.rm=TRUE))
#> # A tibble: 1,417 x 4
#>    vig_active mod_active avg_active sum_active
#>         <dbl>      <dbl>      <dbl>      <dbl>
#>  1       30.0       NA         30.0       30.0
#>  2      180        180        180        360  
#>  3       NA         NA        NaN          0  
#>  4       20.0       70.0       45.0       90.0
#>  5      120         NA        120        120  
#>  6       NA         NA        NaN          0  
#>  7       NA        120        120        120  
#>  8      120         NA        120        120  
#>  9       NA         NA        NaN          0  
#> 10       NA         NA        NaN          0  
#> # ... with 1,407 more rows
…
